[gd_resource type="SpatialMaterial" load_steps=2 format=2]

[ext_resource path="res://elements/baddies/staryNight/VanGogh/starlessnight2048.png" type="Texture" id=1]

[resource]
albedo_texture = ExtResource( 1 )
