[gd_scene load_steps=7 format=2]

[ext_resource path="res://elements/baddies/staryNight/forgroundCSG.tscn" type="PackedScene" id=1]
[ext_resource path="res://elements/baddies/staryNight/starless.tres" type="Material" id=2]
[ext_resource path="res://elements/baddies/staryNight/frames.tscn" type="PackedScene" id=3]

[sub_resource type="GDScript" id=1]
script/source = "extends Spatial


signal fightStarted

func startFight():
	$animationPlayer.play(\"attackTime\")
	
var nextAttack = 0
	
func spawnNextAttack():
	var stuff = preload(\"res://elements/baddies/staryNight/StarAttack.tscn\").instance()
	if $cSGCombiner.burnOutCount < $cSGCombiner.maxBurnouts:
		
		
		add_child(stuff,true)
		stuff.activeValue = $cSGCombiner.burnOutCount
		stuff.transform.origin = stuff.displacement * $cSGCombiner.scale
		stuff.transform.origin.z = 1.0
		stuff.scale = $cSGCombiner.scale
		stuff.connect(\"tree_exited\",self,\"killedStar\")
		$cSGCombiner.burnOutCount += 1
		stuff.owner = self
		return true
	else:
		return false
#	else:
#		queue_free()

var killCount = 0
signal defeated
func killedStar():
	killCount += 1
	if killCount >= $cSGCombiner.maxBurnouts:
		emit_signal(\"defeated\")
"

[sub_resource type="QuadMesh" id=2]
size = Vector2( 256, 203 )

[sub_resource type="Animation" id=3]
resource_name = "attackTime"
length = 12.0
tracks/0/type = "method"
tracks/0/path = NodePath(".")
tracks/0/interp = 1
tracks/0/loop_wrap = true
tracks/0/imported = false
tracks/0/enabled = true
tracks/0/keys = {
"times": PoolRealArray( 0, 1, 2, 3, 4, 5, 6, 7, 8, 9, 10, 11 ),
"transitions": PoolRealArray( 1, 1, 1, 1, 1, 1, 1, 1, 1, 1, 1, 1 ),
"values": [ {
"args": [  ],
"method": "spawnNextAttack"
}, {
"args": [  ],
"method": "spawnNextAttack"
}, {
"args": [  ],
"method": "spawnNextAttack"
}, {
"args": [  ],
"method": "spawnNextAttack"
}, {
"args": [  ],
"method": "spawnNextAttack"
}, {
"args": [  ],
"method": "spawnNextAttack"
}, {
"args": [  ],
"method": "spawnNextAttack"
}, {
"args": [  ],
"method": "spawnNextAttack"
}, {
"args": [  ],
"method": "spawnNextAttack"
}, {
"args": [  ],
"method": "spawnNextAttack"
}, {
"args": [  ],
"method": "spawnNextAttack"
}, {
"args": [  ],
"method": "spawnNextAttack"
} ]
}

[node name="staryNightCSG" type="Spatial"]
transform = Transform( 0.999998, 0.00187045, -0.000728202, -0.00186886, 0.999996, 0.00218576, 0.000732295, -0.00218439, 0.999997, 0, 0, 0 )
script = SubResource( 1 )

[node name="cSGMesh" type="CSGMesh" parent="."]
transform = Transform( 0.25, 0, 0, 0, 0.25, 0, 0, 0, 1, 0, 0, 0 )
mesh = SubResource( 2 )
material = ExtResource( 2 )

[node name="cSGCombiner" parent="." instance=ExtResource( 1 )]
transform = Transform( 0.25, -1.38414e-11, 5.82077e-11, -1.06155e-10, 0.25, 0, 2.91038e-11, 0, 1, -0.198376, 0.0962377, 0.111391 )

[node name="frames" parent="." instance=ExtResource( 3 )]
transform = Transform( 13.583, 6.77028e-09, 5.82077e-11, -7.35599e-09, 10.697, 0, 9.31323e-10, -1.86265e-09, 1, 0, 0, 1.152 )

[node name="animationPlayer" type="AnimationPlayer" parent="."]
playback_speed = 0.5
anims/attackTime = SubResource( 3 )
