[gd_scene load_steps=4 format=2]

[ext_resource path="res://elements/baddies/staryNight/VanGogh/starlessnight2048.png" type="Texture" id=1]

[sub_resource type="ViewportTexture" id=1]
viewport_path = NodePath("viewport")

[sub_resource type="Animation" id=2]
resource_name = "go"
loop = true
tracks/0/type = "value"
tracks/0/path = NodePath(".:position")
tracks/0/interp = 1
tracks/0/loop_wrap = true
tracks/0/imported = false
tracks/0/enabled = true
tracks/0/keys = {
"times": PoolRealArray( 0, 1 ),
"transitions": PoolRealArray( 1, 1 ),
"update": 0,
"values": [ Vector2( -32, 0 ), Vector2( 32, 0 ) ]
}

[node name="node" type="Node"]

[node name="qwer" type="Sprite" parent="."]
position = Vector2( -1156.69, -767.133 )
texture = SubResource( 1 )
centered = false

[node name="viewport" type="Viewport" parent="."]
size = Vector2( 2048, 1624 )
usage = 0
render_target_v_flip = true
render_target_update_mode = 3

[node name="starlessnight2048" type="Sprite" parent="viewport"]
texture = ExtResource( 1 )
centered = false

[node name="camera2D" type="Camera2D" parent="viewport"]
position = Vector2( 32, 0 )
current = true

[node name="animationPlayer" type="AnimationPlayer" parent="viewport/camera2D"]
autoplay = "go"
anims/go = SubResource( 2 )

[node name="camera2D" type="Camera2D" parent="."]
rotation = -0.115127
current = true
