[gd_scene load_steps=2 format=2]

[sub_resource type="GDScript" id=1]
script/source = "extends Label

var target:Node
var variable:String
func _process(_delta):
	if target:
		text = \"%s = %s\" % [variable, String(target[variable])]
"

[node name="Label" type="Label"]
margin_right = 32.0
margin_bottom = 14.0
script = SubResource( 1 )
__meta__ = {
"_edit_use_anchors_": false
}
