[gd_scene load_steps=4 format=2]

[ext_resource path="res://area.gd" type="Script" id=1]
[ext_resource path="res://butter_heart.png" type="Texture" id=2]

[sub_resource type="SphereShape" id=1]

[node name="area" type="Area"]
collision_layer = 4
collision_mask = 4
script = ExtResource( 1 )

[node name="sprite3D" type="Sprite3D" parent="."]
transform = Transform( 0.5, 0, 0, 0, 0.5, 0, 0, 0, 0.5, 0, 0, 0 )
billboard = 1
texture = ExtResource( 2 )

[node name="collisionShape" type="CollisionShape" parent="."]
shape = SubResource( 1 )

[connection signal="body_entered" from="." to="." method="_on_area_body_entered"]
[connection signal="body_exited" from="." to="." method="_on_area_body_exited"]
