[gd_scene load_steps=4 format=2]

[sub_resource type="GDScript" id=1]
script/source = "tool
extends CanvasLayer

export var value:float = 100.0 setget setValue


func setValue(newValue):
	value = clamp(newValue,0,100)
	if not has_node(\"marginContainer/progressBar\"):
		yield(self,\"ready\")
	$marginContainer/progressBar.value = value
"

[sub_resource type="StyleBoxFlat" id=2]
bg_color = Color( 1, 0, 0, 1 )
border_width_left = 4
border_width_top = 4
border_width_right = 4
border_width_bottom = 4
border_color = Color( 0.8, 0.8, 0.8, 0 )
corner_radius_top_left = 8
corner_radius_top_right = 8
corner_radius_bottom_right = 8
corner_radius_bottom_left = 8

[sub_resource type="StyleBoxFlat" id=3]
bg_color = Color( 0, 0, 0, 1 )

[node name="canvasLayer" type="CanvasLayer"]
script = SubResource( 1 )
value = 0.0

[node name="marginContainer" type="MarginContainer" parent="."]
anchor_left = 0.5
anchor_right = 0.5
margin_left = -465.0
margin_right = 466.0
margin_bottom = 57.0
size_flags_horizontal = 3
size_flags_vertical = 3
custom_constants/margin_right = 8
custom_constants/margin_top = 8
custom_constants/margin_left = 8
custom_constants/margin_bottom = 8
__meta__ = {
"_edit_use_anchors_": false
}

[node name="progressBar" type="ProgressBar" parent="marginContainer"]
margin_left = 8.0
margin_top = 8.0
margin_right = 923.0
margin_bottom = 49.0
size_flags_vertical = 1
custom_styles/fg = SubResource( 2 )
custom_styles/bg = SubResource( 3 )
percent_visible = false
