[gd_scene load_steps=4 format=2]

[ext_resource path="res://elements/tools/buttons.gd" type="Script" id=1]
[ext_resource path="res://assets/buttons/Xbox.png" type="Texture" id=2]

[sub_resource type="Animation" id=1]
resource_name = "prompt"
loop = true
tracks/0/type = "method"
tracks/0/path = NodePath(".")
tracks/0/interp = 1
tracks/0/loop_wrap = true
tracks/0/imported = false
tracks/0/enabled = true
tracks/0/keys = {
"times": PoolRealArray( 0, 0.5 ),
"transitions": PoolRealArray( 1, 1 ),
"values": [ {
"args": [  ],
"method": "down"
}, {
"args": [  ],
"method": "up"
} ]
}

[node name="ButtonPrompt" type="Sprite"]
texture = ExtResource( 2 )
offset = Vector2( 0.5, 0 )
hframes = 12
vframes = 6
frame = 5
script = ExtResource( 1 )

[node name="AnimationPlayer" type="AnimationPlayer" parent="."]
method_call_mode = 1
anims/prompt = SubResource( 1 )
