[gd_scene load_steps=2 format=2]

[sub_resource type="GDScript" id=1]
script/source = "extends HBoxContainer

func setup(target:Node,text:String,default):
	$Label.text = text + \":\"
	$SpinBox.connect(\"value_changed\",target,\"on_changed\",[text])
	$SpinBox.value = default
"

[node name="template" type="HBoxContainer"]
margin_top = 18.0
margin_right = 78.0
margin_bottom = 42.0
script = SubResource( 1 )
__meta__ = {
"_edit_use_anchors_": false
}

[node name="Label" type="Label" parent="."]
margin_top = 5.0
margin_right = 100.0
margin_bottom = 19.0
rect_min_size = Vector2( 100, 0 )

[node name="SpinBox" type="SpinBox" parent="."]
margin_left = 104.0
margin_right = 178.0
margin_bottom = 24.0
step = 0.05
