[gd_resource type="SpatialMaterial" load_steps=4 format=2]

[ext_resource path="res://assets/mats/paper/Cardboard001_1K_Roughness.jpg" type="Texture" id=1]
[ext_resource path="res://assets/mats/paper/Cardboard001_1K_Normal.jpg" type="Texture" id=2]
[ext_resource path="res://assets/mats/paper/Cardboard001_1K_Color.jpg" type="Texture" id=3]

[resource]
albedo_texture = ExtResource( 3 )
roughness_texture = ExtResource( 1 )
normal_enabled = true
normal_scale = 1.0
normal_texture = ExtResource( 2 )
uv1_scale = Vector3( 0.97, 1, 1 )
uv1_triplanar = true
