[gd_resource type="SpatialMaterial" load_steps=6 format=2]

[ext_resource path="res://assets/mats/paper/Paper003_1K_Roughness.jpg" type="Texture" id=1]
[ext_resource path="res://assets/mats/paper/Paper003_1K_Color.jpg" type="Texture" id=2]
[ext_resource path="res://assets/mats/paper/Paper003_1K_Normal.jpg" type="Texture" id=3]

[sub_resource type="Gradient" id=1]
offsets = PoolRealArray( 0.587413 )
colors = PoolColorArray( 0.56993, 0.56993, 0.56993, 1 )

[sub_resource type="GradientTexture" id=2]
gradient = SubResource( 1 )
width = 1

[resource]
albedo_texture = ExtResource( 2 )
roughness_texture = ExtResource( 1 )
normal_enabled = true
normal_scale = 1.0
normal_texture = ExtResource( 3 )
detail_enabled = true
detail_mask = SubResource( 2 )
detail_blend_mode = 3
detail_uv_layer = 1
detail_albedo = ExtResource( 2 )
detail_normal = ExtResource( 3 )
uv1_scale = Vector3( 0.1, 0.1, 0.1 )
uv1_triplanar = true
uv2_scale = Vector3( 0.03, 0.03, 0 )
uv2_triplanar = true
